<?xml version="1.0" encoding="utf-8"?>
<!-- Generator: Adobe Illustrator 21.0.0, SVG Export Plug-In . SVG Version: 6.00 Build 0)  -->
<svg version="1.1" xmlns="http://www.w3.org/2000/svg" xmlns:xlink="http://www.w3.org/1999/xlink" x="0px" y="0px"
	 viewBox="0 0 200 200" style="enable-background:new 0 0 200 200;" xml:space="preserve">
<style type="text/css">
	.st0{fill:#31A1F0;}
	.st1{display:none;}
	.st2{display:inline;}
	.st3{fill:#B0B0B0;}
	.st4{display:inline;fill:#B0B0B0;}
	.st5{fill:#FFFFFF;}
</style>
<g id="Layer_5">
	<rect class="st0" width="200" height="200"/>
</g>
<g id="Layer_1" class="st1">
	<g id="g8" class="st2">
		<g id="g10">
			<path id="path12" class="st3" d="M43.1,98c0.3-20.1,18.8-37.8,39-37.1c9.7-0.4,18.7,3.7,26.1,9.7c-3.2,3.6-6.4,7-9.9,10.3
				c-8.9-6.1-21.5-7.9-30.4-0.8c-12.7,8.8-13.3,29.5-1.1,39c11.9,10.8,34.3,5.4,37.6-11.1c-7.4-0.1-14.9,0-22.3-0.2
				c0-4.4,0-8.9,0-13.3c12.4,0,24.9,0,37.3,0c0.7,10.4-0.6,21.6-7.1,30.2c-9.7,13.7-29.2,17.7-44.5,11.8
				C52.6,130.6,41.8,114.4,43.1,98z"/>
			<path id="path14" class="st3" d="M143.7,83.1c3.7,0,7.4,0,11.1,0c0,3.7,0,7.4,0.1,11.2c3.7,0,7.4,0,11.2,0.1c0,3.7,0,7.4,0,11.1
				c-3.7,0-7.4,0-11.2,0.1c0,3.7,0,7.4-0.1,11.2c-3.7,0-7.4,0-11.1,0c0-3.7,0-7.4-0.1-11.1c-3.7,0-7.4-0.1-11.2-0.1
				c0-3.7,0-7.4,0-11.1c3.7,0,7.4,0,11.2-0.1C143.6,90.6,143.6,86.8,143.7,83.1z"/>
		</g>
	</g>
</g>
<g id="Layer_1_copy" class="st1">
	<path class="st4" d="M102.1,94.1c0,4.7,0,9.3,0,14c7.8,0.2,15.7,0.1,23.5,0.2c-3.5,17.3-27.1,23-39.6,11.6
		c-12.8-9.9-12.2-31.7,1.1-41c9.3-7.4,22.6-5.6,32,0.9c3.7-3.4,7.1-7,10.4-10.8c-7.8-6.2-17.3-10.6-27.4-10.1
		c-21.2-0.7-40.6,17.8-41,39c-1.3,17.3,10,34.3,26.1,40.4c16,6.2,36.5,2,46.7-12.4c6.8-9.1,8.2-20.8,7.4-31.7
		C128.3,94,115.2,94,102.1,94.1z"/>
</g>
<g id="Layer_2" class="st1">
	<path class="st4" d="M38.8,74.8c0.7-1.1,1.7-1.6,2.9-1.7c0.6,0,1.2-0.1,1.8-0.1c4.9,0,9.9,0,14.8-0.1c2.5,0,4.2,1.1,5.3,3.5
		c3,6.2,6,12.3,9.1,18.3c1.3,2.5,3,4.9,5.3,6.7c0.5,0.4,1.1,0.8,1.7,1c1.4,0.5,2.5,0.1,3.2-1.2c1.1-2,1.2-4.1,1.4-6.3
		C85,90,85,85,84,80.1c-0.6-2.9-2.4-4.5-5.2-5.1c-1.5-0.3-1.6-0.7-0.5-1.8c1.2-1.3,2.7-2.2,4.4-2.4c6.6-1,13.2-1.1,19.7-0.1
		c3.2,0.5,4.5,1.6,4.8,5.5c0.2,2.9,0,5.9-0.1,8.9c0,4-0.1,7.9-0.1,11.9c0,1.2,0.3,2.4,0.7,3.4c0.9,2.3,2.7,2.7,4.5,1.1
		c3.1-2.5,5.1-5.9,7.2-9.2c3.2-5,5.8-10.3,8-15.8c1.2-2.9,1.7-3.2,4.8-3.3c6.1,0,12.2-0.1,18.4-0.2c0.9,0,1.9,0.1,2.8,0.4
		c1.7,0.5,2.3,1.5,2,3.3c-0.5,2.8-1.8,5.2-3.3,7.4c-4,5.7-8.1,11.3-12.2,16.9c-0.9,1.3-1.8,2.5-2.6,3.9c-1.3,2.3-1.1,4.3,0.7,6.2
		c2.7,2.8,5.5,5.4,8.2,8.1c3,3,5.8,6,7.9,9.7c0.4,0.7,0.8,1.6,1,2.4c0.8,2.9-0.6,4.5-3.5,4.8c-2.6,0.3-5.2,0.2-7.7,0.3
		c-3.3,0.1-6.7,0.2-10,0.2c-2.8,0-5.4-1-7.5-2.8c-2.3-2-4.4-4.3-6.5-6.5c-1.6-1.6-3.1-3.2-4.7-4.8c-0.4-0.4-1-0.7-1.5-1
		c-1.4-0.7-2.4-0.6-3.6,0.5c-2.1,1.9-2.6,4.4-2.9,7c-0.1,1.1-0.1,2.3-0.2,3.4c-0.2,2.3-1.3,3.6-3.6,3.8c-10,0.8-19.5-0.4-28.1-6.3
		c-5.7-4-10.4-8.8-14.5-14.3c-8.8-11.8-15.6-24.7-21.5-38.1c-0.1-0.3-0.3-0.7-0.5-1C38.8,75.9,38.8,75.4,38.8,74.8z"/>
</g>
<g id="Layer_3" class="st1">
	<path class="st4" d="M120,55c0,0.3,0,0.5,0,0.8c0,4.4,0,8.8,0,13.3c0,0.6-0.2,0.8-0.8,0.8c-2.4,0-4.8,0-7.2,0
		c-0.8,0-1.6,0.1-2.4,0.3c-1.5,0.3-2.6,1.5-2.7,3.2c-0.1,3.1-0.1,6.2-0.2,9.3c0,0.6,0.4,0.5,0.7,0.5c3.9,0,7.8,0,11.7,0
		c0.3,0,0.5,0,0.9,0c-0.5,5-1,9.9-1.6,14.8c-3.9,0-7.8,0-11.7,0c0,0.3,0,0.6,0,0.9c0,13.8,0,27.6,0,41.3c0,0.3,0,0.5,0,0.8
		c-5.4,0-10.7,0-16.1,0c0-1.3,0-2.6,0-3.8c0-12.7,0-25.4,0-38.1c0-0.3,0-0.7,0-1.1c-3.6,0-7.1,0-10.7,0c0-0.3,0-0.5,0-0.7
		c0-4.4,0-8.9,0-13.3c0-0.6,0.2-0.8,0.8-0.8c3.1,0,6.1,0,9.2,0c0.7,0,0.8-0.2,0.8-0.8c0-4,0-8,0.1-11.9c0.1-2.9,0.7-5.7,2.1-8.3
		c1.5-2.9,3.8-4.8,6.8-5.8c1.7-0.5,3.5-0.8,5.2-1.1c0.2-0.1,0.5-0.1,0.7-0.2C110.4,55,115.2,55,120,55z"/>
</g>
<g id="Layer_4">
	<path class="st5" d="M54.9,130.2c10.6,1,20.1-1.6,28.5-8.1c-4.1-0.3-7.9-1.6-11.2-4c-3.3-2.5-5.6-5.6-6.9-9.4c1.4,0,2.9,0.1,4.3,0
		c1.4-0.1,2.7-0.3,4.1-0.6c-5.7-1.6-10-4.7-12.9-9.8c-1.7-3.1-2.7-7-2.4-9.6c1.4,0.5,2.7,1.1,4.1,1.5c1.4,0.4,2.9,0.6,4.3,0.7
		c-8.6-7.3-10.5-16-5.8-26.4C71.9,77.1,85.3,84,101.8,85.2c-0.1-1.3-0.3-2.4-0.3-3.5c-0.3-6.1,1.8-11.3,6.3-15.4
		c4.9-4.6,10.8-6.1,17.3-4.8c3.8,0.7,7.1,2.5,9.8,5.2c0.4,0.4,0.8,0.5,1.3,0.4c3.7-0.9,7.2-2.1,10.5-4c0.3-0.2,0.7-0.3,1.2-0.6
		c-1.5,4.6-4.3,8-8.1,10.6c3.7-0.3,7.2-1.4,10.7-2.9c-1.8,2.7-3.8,5-6.1,7.1c-1,0.9-2,1.7-3,2.5c-0.5,0.4-0.7,0.8-0.7,1.5
		c0.2,5.6-0.5,11.2-2,16.6c-1.3,4.6-3.2,9.1-5.5,13.3c-2.6,4.5-5.7,8.7-9.4,12.3c-5,5-10.8,8.8-17.4,11.4c-6.2,2.5-12.6,3.8-19.3,4
		c-4.7,0.2-9.3-0.1-13.9-1.1c-4.6-1-9.1-2.4-13.3-4.6c-1.7-0.9-3.5-1.8-5.2-2.8C54.9,130.4,54.9,130.3,54.9,130.2z"/>
</g>
</svg>
