<?xml version="1.0" encoding="utf-8"?>
<!-- Generator: Adobe Illustrator 21.0.0, SVG Export Plug-In . SVG Version: 6.00 Build 0)  -->
<svg version="1.1" id="Layer_1" xmlns="http://www.w3.org/2000/svg" xmlns:xlink="http://www.w3.org/1999/xlink" x="0px" y="0px"
	 viewBox="0 0 30 30" style="enable-background:new 0 0 30 30;" xml:space="preserve">
<style type="text/css">
	.st0{fill:#EB1B34;}
</style>
<path class="st0" d="M21.9,3.3c-3.5,0-5.5,2-6.9,3.5c-1.3-1.5-3.3-3.5-6.9-3.5C4,3.3,0.5,6.7,0.5,11c0,5.2,3,8.3,14,17.3l0.5,0.4
	l0.5-0.4c11-9,14-12.1,14-17.3C29.5,6.8,26.1,3.3,21.9,3.3z"/>
</svg>
