<?xml version="1.0" encoding="utf-8"?>
<!-- Generator: Adobe Illustrator 21.0.0, SVG Export Plug-In . SVG Version: 6.00 Build 0)  -->
<svg version="1.1" id="Layer_1" xmlns="http://www.w3.org/2000/svg" xmlns:xlink="http://www.w3.org/1999/xlink" x="0px" y="0px"
	 viewBox="0 0 30 30" style="enable-background:new 0 0 30 30;" xml:space="preserve">
<style type="text/css">
	.st0{fill:#808285;}
</style>
<g>
	<path class="st0" d="M5.7,3c1,0,1.9,0,2.9,0c1.5,0,2.7,0.5,3.8,1.6c3.6,3.6,7.2,7.2,10.8,10.8c1.1,1.1,1.1,2.2,0,3.3
		c-2.4,2.4-4.8,4.8-7.2,7.2c-1.2,1.2-2.2,1.2-3.4,0C9,22.3,5.4,18.7,1.8,15.1c-1.1-1.1-1.6-2.4-1.6-3.8c0-2,0-4,0-6
		C0.2,3.8,1,3,2.5,3C3.5,3,4.6,3,5.7,3z M7.2,8c0-1.1-0.8-2-1.9-2c-1.1,0-2,0.8-2,1.9c0,1.1,0.9,2.1,2,2.1C6.3,10,7.2,9.1,7.2,8z"/>
	<path class="st0" d="M18.6,25.7c2.3-2.3,4.6-4.6,7-6.9c1.3-1.3,1.3-2.3,0-3.6c-3.3-3.3-6.5-6.5-9.8-9.8c-1-1-1.9-2-3.3-2.4
		c2.2-0.2,4.3-0.2,6,1.5c3.5,3.6,7.1,7.1,10.7,10.7c1.2,1.2,1.2,2.2,0,3.4c-2.4,2.4-4.8,4.8-7.2,7.2C20.8,27.1,19.6,27,18.6,25.7z"
		/>
</g>
</svg>
