<?xml version="1.0" encoding="utf-8"?>
<!-- Generator: Adobe Illustrator 21.0.0, SVG Export Plug-In . SVG Version: 6.00 Build 0)  -->
<svg version="1.1" id="Layer_1" xmlns="http://www.w3.org/2000/svg" xmlns:xlink="http://www.w3.org/1999/xlink" x="0px" y="0px"
	 viewBox="0 0 100 40" style="enable-background:new 0 0 100 40;" xml:space="preserve">
<style type="text/css">
	.st0{fill:none;stroke:#B3B3B3;stroke-linecap:round;stroke-miterlimit:10;}
	.st1{fill:#B3B3B3;}
	.st2{font-family:'BebasNeueBold';}
	.st3{font-size:28.6445px;}
	.st4{fill:none;stroke:#B3B3B3;stroke-linecap:square;stroke-miterlimit:10;}
</style>
<path class="st0" d="M45.1,34.8C32.3,34.7,21.9,29.4,21.9,23c0-2.8,2-5.4,5.3-7.4"/>
<path class="st0" d="M63.7,15.4c3.5,2.1,5.5,4.7,5.5,7.6c0,5.6-7.9,10.3-18.5,11.5"/>
<text transform="matrix(1 0 0 1 28.4829 25.8359)" class="st1 st2 st3">360°</text>
<line class="st4" x1="42.2" y1="31.6" x2="45.5" y2="34.8"/>
<line class="st4" x1="41.9" y1="37.6" x2="45.5" y2="34.8"/>
</svg>
