<?xml version="1.0" encoding="utf-8"?>
<!-- Generator: Adobe Illustrator 21.0.0, SVG Export Plug-In . SVG Version: 6.00 Build 0)  -->
<svg version="1.1" id="Layer_1" xmlns="http://www.w3.org/2000/svg" xmlns:xlink="http://www.w3.org/1999/xlink" x="0px" y="0px"
	 viewBox="0 0 100 40" style="enable-background:new 0 0 100 40;" xml:space="preserve">
<style type="text/css">
	.st0{fill:none;stroke:#B3B3B3;stroke-width:1.2;stroke-linecap:round;stroke-miterlimit:10;}
	.st1{fill:#34588A;}
	.st2{fill:none;stroke:#B3B3B3;stroke-width:1.2;stroke-linecap:square;stroke-miterlimit:10;}
</style>
<path class="st0" d="M45.1,34.8C32.3,34.7,21.9,29.4,21.9,23c0-2.8,2-5.4,5.3-7.4"/>
<path class="st0" d="M63.7,15.4c3.5,2.1,5.5,4.7,5.5,7.6c0,5.6-7.9,10.3-18.5,11.5"/>
<g>
	<path class="st1" d="M35.9,10c0-1.7-0.6-2.2-1.5-2.2s-1.5,0.5-1.5,1.9v1.2H30v-1c0-3,1.5-4.8,4.5-4.8s4.5,1.7,4.5,4.8v0.5
		c0,2-0.7,3.3-2.1,3.9c1.5,0.7,2.1,2.1,2.1,4v1.5c0,3-1.5,4.8-4.5,4.8S30,22.8,30,19.8v-1.6h2.8V20c0,1.4,0.6,1.9,1.5,1.9
		s1.5-0.5,1.5-2.1v-1.5c0-1.8-0.6-2.4-2-2.4h-1v-2.7h1.2c1.1,0,1.8-0.5,1.8-2V10z"/>
	<path class="st1" d="M40.7,10c0-3.2,1.5-4.9,4.6-4.9c2.9,0,4.5,1.7,4.5,4.8v0.5h-2.8V9.7c0-1.4-0.6-1.9-1.5-1.9
		c-1.1,0-1.7,0.5-1.7,2.3v3.5c0.5-1.1,1.4-1.7,2.8-1.7c2.2,0,3.3,1.5,3.3,4.3v3.5c0,3-1.6,4.8-4.5,4.8s-4.5-1.7-4.5-4.8V10z
		 M43.7,16.5V20c0,1.4,0.6,1.8,1.5,1.8s1.5-0.5,1.5-1.8v-3.4c0-1.4-0.6-1.9-1.5-1.9S43.7,15.2,43.7,16.5z"/>
	<path class="st1" d="M51.4,9.9c0-3,1.6-4.8,4.5-4.8c2.9,0,4.5,1.7,4.5,4.8v9.9c0,3-1.6,4.8-4.5,4.8c-2.9,0-4.5-1.7-4.5-4.8V9.9z
		 M54.4,20c0,1.4,0.6,1.9,1.5,1.9s1.5-0.5,1.5-1.9V9.7c0-1.4-0.6-1.9-1.5-1.9s-1.5,0.5-1.5,1.9V20z"/>
	<path class="st1" d="M64.4,5.1c1.5,0,2.7,1.2,2.7,2.7s-1.2,2.7-2.7,2.7c-1.5,0-2.7-1.2-2.7-2.7S62.9,5.1,64.4,5.1z M64.4,9.1
		c0.7,0,1.3-0.6,1.3-1.3c0-0.7-0.6-1.3-1.3-1.3c-0.7,0-1.3,0.6-1.3,1.3C63.1,8.5,63.7,9.1,64.4,9.1z"/>
</g>
<line class="st2" x1="42.2" y1="31.6" x2="45.5" y2="34.8"/>
<line class="st2" x1="41.9" y1="37.6" x2="45.5" y2="34.8"/>
</svg>
